GART Map
…
routes_geocoded

Simple feature collection with 26 features and 24 fields
Active geometry column: route_geometry
Geometry type: LINESTRING
Dimension:     XY
Bounding box:  xmin: -123.0509 ymin: 29.43709 xmax: -85.38246 ymax: 45.43489
Geodetic CRS:  WGS 84
# A tibble: 26 × 27
      id date     day  week origin_location type  hiking biking climbing fishing
 * <int> <chr>  <int> <int> <chr>           <chr>  <int>  <int>    <int>   <int>
 1     1 3/22/…     0     1 Tigard, OR      Camp      NA     NA       NA      NA
 2     2 3/23/…     1     1 Crane Hot Spri… Camp      NA     NA       NA      NA
 3     3 3/24/…     2     1 Wells, NV       Camp      NA     NA       NA      NA
 4     4 3/25/…     3     1 Moab, UT        Camp       1      1       NA      NA
 5     5 3/28/…     6     1 Boulder, CO     Camp       1     NA       NA      NA
 6     6 3/31/…     9     2 Colorado Sprin… Camp       1     NA       NA      NA
 7     7 4/5/2…    14     2 Palo Duro Cany… Camp       1      1       NA      NA
 8     8 4/7/2…    16     3 Covington ,TX   Camp      NA     NA       NA      NA
 9     9 4/9/2…    18     3 Little Rock, AR Camp      NA     NA       NA      NA
10    10 4/11/…    20     3 Memphis, TN     Camp      NA     NA       NA      NA
# ℹ 16 more rows
# ℹ 17 more variables: sightseeing <int>, music <int>, friends <int>,
#   eclipse <int>, caving <int>, sup <int>, origin_geometry <POINT [°]>,
#   destination_geometry <POINT [°]>, destination_location <chr>,
#   route_src <chr>, route_dst <chr>, route_duration <dbl>,
#   route_distance <dbl>, route_geometry <LINESTRING [°]>,
#   distance_miles <dbl>, distance_text <chr>, duration_text <chr>
…
